Chapter 10: OCR with tesseract – Toolbox CSS
…
Note that there are still line breaks in there. We can easily replace them with whitespace them using stringr::str_replace_all(). Make sure to remove redundant whitespaces using stringr::str_squish()

needs(tidyverse)
ocr("figures/rstudio_wiki.png", engine = english) |> 
  str_replace_all("\\n", " ") |> 
  str_squish()

[1] "RStudio IDE (or RStudio) is an integrated development environment for R, a programming language for statistical computing and graphics. It is available in two formats: RStudio Desktop is a regular desktop application while RStudio Server runs on a remote server and allows accessing RStudio using a web browser. The RStudio IDE is a product of Posit PBC (formerly RStudio PBC, formerly RStudio Inc.)."

If we want deeper insights to the confidence tesseract has in its word guesses, use tesseract::ocr_data().

ocr_data("figures/rstudio_wiki.png", engine = english)

# A tibble: 63 × 3
   word        confidence bbox           
   <chr>            <dbl> <chr>          
 1 RStudio           91.8 14,18,134,43   
 2 IDE               96.6 145,19,196,42  
 3 (or               93.3 207,18,245,49  
 4 RStudio)          92.9 256,18,385,49  
 5 is                96.3 397,19,418,43  
 6 an                96.3 429,24,461,43  
 7 integrated        96.5 474,18,612,49  
 8 development       93.7 624,18,806,49  
 9 environment       96.5 816,19,991,43  
10 for               93.2 1001,18,1038,43
# ℹ 53 more rows
…
