Chapter 2: Brief R Recap – Toolbox CSS
…
You can create a tibble by column using the tibble function. Column names need to be specified and linked to vectors of either the same length or length one.

This data set basically consists of three variables: German car manufacturer, number of cylinders, and frequency. To make the data set tidy, it has to consist of three columns depicting the three respective variables. This operation is called pivoting the non-variable columns into two-column key-value pairs. As the data set will thereafter contain fewer columns and more rows than before, it will have become longer (or taller). Hence, the tidyr function is called pivot_longer().

ger_car_manufacturer_longer <- tibble_value_headers |> 
  pivot_longer(-manufacturer, names_to = "cylinders", values_to = "frequency")
ger_car_manufacturer_longer

# A tibble: 40 × 3
   manufacturer cylinders frequency
   <chr>        <chr>         <dbl>
 1 Audi         3 cyl             2
 2 Audi         4 cyl            88
 3 Audi         5 cyl             2
 4 Audi         6 cyl            41
 5 Audi         8 cyl            30
 6 Audi         10 cyl            8
 7 Audi         12 cyl            1
 8 Audi         16 cyl            0
 9 BMW          3 cyl             5
10 BMW          4 cyl            93
# ℹ 30 more rows
…
Warning: Expected 2 pieces. Missing pieces filled with `NA` in 40 rows [1, 2, 3, 4, 5,
6, 7, 8, 9, 10, 11, 12, 13, 14, 15, 16, 17, 18, 19, 20, ...].

If there are two (or actually more) relevant values in one column, you can simply let out the dropping process and easily split them into multiple columns. By default, the sep = argument divides the content by all non-alphanumeric characters (every character that is not a letter, number, or space) it contains.

Please note that the new column is still in character format. We can change this using as.numeric():

ger_car_manufacturer_longer_sep_cyl$cylinders <- as.numeric(ger_car_manufacturer_longer_sep_cyl$cylinders)

Furthermore, you might want to sort your data in a different manner. If you want to do this by cylinders, it would look like this:

arrange(ger_car_manufacturer_longer_sep_cyl, cylinders)

# A tibble: 40 × 3
   manufacturer cylinders frequency
   <chr>            <dbl>     <dbl>
 1 Audi                 3         2
 2 BMW                  3         5
 3 Mercedes             3         2
 4 Opel                 3         3
 5 VW                   3         4
 6 Audi                 4        88
 7 BMW                  4        93
 8 Mercedes             4        50
 9 Opel                 4        54
10 VW                   4        70
# ℹ 30 more rows

Insertion: the pipe

Have you noticed the |>? That’s the pipe. It can be considered a conjunction in coding. Usually, you will use it when working with tibbles. What it does is pretty straight-forward: it takes what is on its left – the input – and provides it to the function on its right as the first argument. Hence, the code in the last chunk, which looks like this

arrange(ger_car_manufacturer_longer_sep_cyl, cylinders)

# A tibble: 40 × 3
   manufacturer cylinders frequency
   <chr>            <dbl>     <dbl>
 1 Audi                 3         2
 2 BMW                  3         5
 3 Mercedes             3         2
 4 Opel                 3         3
 5 VW                   3         4
 6 Audi                 4        88
 7 BMW                  4        93
 8 Mercedes             4        50
 9 Opel                 4        54
10 VW                   4        70
# ℹ 30 more rows

could have also been written like this

ger_car_manufacturer_longer_sep_cyl |> arrange(cylinders)

# A tibble: 40 × 3
   manufacturer cylinders frequency
   <chr>            <dbl>     <dbl>
 1 Audi                 3         2
 2 BMW                  3         5
 3 Mercedes             3         2
 4 Opel                 3         3
 5 VW                   3         4
 6 Audi                 4        88
 7 BMW                  4        93
 8 Mercedes             4        50
 9 Opel                 4        54
10 VW                   4        70
# ℹ 30 more rows
…
When you analyze data, you often want to compare entities according to some sort of summary statistic. This means that you, first, need to split up your data set into certain groups which share one or more characteristics, and, second, collapse the rows together into single-row summaries. The former challenge is accomplished using group_by() whose argument is one or more variables, the latter requires the summarize() function. This function works similar to mutate() but uses summary functions – which take a vector of multiple values and return a single value – instead of window functions – which return a vector of the same length as the input.

Let me provide you an example.

I am interested in the director’s average ratings:

imdb_selected |> 
  group_by(director, year) |> 
  summarize(avg_rating = mean(rating),
            avg_revenue = mean(revenue_million, na.rm = TRUE))

`summarise()` has grouped output by 'director'. You can override using the
`.groups` argument.

# A tibble: 987 × 4
# Groups:   director [644]
   director             year avg_rating avg_revenue
   <chr>               <dbl>      <dbl>       <dbl>
 1 Aamir Khan           2007        8.5        1.2 
 2 Abdellatif Kechiche  2013        7.8        2.2 
 3 Adam Leon            2016        6.5      NaN   
 4 Adam McKay           2006        6.6      148.  
 5 Adam McKay           2008        6.9      100.  
 6 Adam McKay           2010        6.7      119.  
 7 Adam McKay           2015        7.8       70.2 
 8 Adam Shankman        2007        6.7      119.  
 9 Adam Shankman        2012        5.9       38.5 
10 Adam Wingard         2014        6.7        0.32
# ℹ 977 more rows
…
Summary functions in R

Another handy function akin to this is count(). It counts all occurrences of a singular value in the tibble.

If I were interested in how many movies of the different directors have made it into the data set, I could use this code:

imdb_selected |> 
  count(director)

# A tibble: 644 × 2
   director                n
   <chr>               <int>
 1 Aamir Khan              1
 2 Abdellatif Kechiche     1
 3 Adam Leon               1
 4 Adam McKay              4
 5 Adam Shankman           2
 6 Adam Wingard            2
 7 Afonso Poyart           1
 8 Aisling Walsh           1
 9 Akan Satayev            1
10 Akiva Schaffer          1
# ℹ 634 more rows

While summarize() is powerful, it has a limitation: it always returns exactly one row per group. Sometimes you need more flexibility - that’s where reframe() comes in. Introduced in dplyr 1.1.0, reframe() allows you to return any number of rows per group.

With reframe(), we can for instance calculate the rating quantiles per director:

imdb_selected |> 
  group_by(director) |> 
  reframe(
    rating_quantiles = quantile(rating, probs = c(0.25, 0.5, 0.75)),
    quantile = rep(c(0.25, 0.5, 0.75))
  ) |> 
    ungroup()

# A tibble: 1,932 × 3
   director            rating_quantiles quantile
   <chr>                          <dbl>    <dbl>
 1 Aamir Khan                      8.5      0.25
 2 Aamir Khan                      8.5      0.5 
 3 Aamir Khan                      8.5      0.75
 4 Abdellatif Kechiche             7.8      0.25
 5 Abdellatif Kechiche             7.8      0.5 
 6 Abdellatif Kechiche             7.8      0.75
 7 Adam Leon                       6.5      0.25
 8 Adam Leon                       6.5      0.5 
 9 Adam Leon                       6.5      0.75
10 Adam McKay                      6.68     0.25
# ℹ 1,922 more rows
…
More flexibility in your output structure

Note that both functions return a grouped tibble, so you may want to ungroup() afterwards if you’re doing further operations.

arrange()

Finally, you can also sort values using arrange(). In the last section, I was interested in directors’ respective average ratings. The values were ordered according to their name (hence, “Aamir Khan” was first). In this case, the order dos not make too much sense, because the first name does not say too much about the director’s ratings. Therefore, I want to sort them according to their average ratings:

imdb_selected |> 
  group_by(director) |> 
  summarize(avg_rating = mean(rating)) |> 
  arrange(avg_rating)

# A tibble: 644 × 2
   director           avg_rating
   <chr>                   <dbl>
 1 Jason Friedberg           1.9
 2 James Wong                2.7
 3 Shawn Burkett             2.7
 4 Jonathan Holbrook         3.2
 5 Femi Oyeniran             3.5
 6 Micheal Bafaro            3.5
 7 Jeffrey G. Hunt           3.7
 8 Rolfe Kanefsky            3.9
 9 Joey Curtis               4  
10 Sam Taylor-Johnson        4.1
# ℹ 634 more rows

All right, Jason Friedberg is apparently the director of the worst rated movie in my data set. But it would be more handy, if they were arranged in descending order. I can use desc() for this:

imdb_selected |> 
  group_by(director) |> 
  summarize(avg_rating = mean(rating)) |> 
  arrange(-avg_rating)

# A tibble: 644 × 2
   director                         avg_rating
   <chr>                                 <dbl>
 1 Nitesh Tiwari                          8.8 
 2 Christopher Nolan                      8.68
 3 Makoto Shinkai                         8.6 
 4 Olivier Nakache                        8.6 
 5 Aamir Khan                             8.5 
 6 Florian Henckel von Donnersmarck       8.5 
 7 Damien Chazelle                        8.4 
 8 Naoko Yamada                           8.4 
 9 Amber Tamblyn                          8.3 
10 Lee Unkrich                            8.3 
# ℹ 634 more rows
…
demographic_data <- election_data |> 
  select(name, state, pop:hh_income) |> 
  slice(1:2000) #you will see later why I do this

left_join() and right_join()

If we want to add the demographic data to the election data 2016, we can use a left_join() or a right_join(). The former adds all columns of y to x, the latter all columns of x to y. Here, I want to add the demographic data to the election data 2016. Therefore, I use a left_join():

election_data16 |> 
  left_join(demographic_data)

Joining with `by = join_by(name, state)`

# A tibble: 3,141 × 17
   name        state votes_dem_2016 votes_gop_2016 total_votes_2016 per_dem_2016
   <chr>       <chr>          <dbl>          <dbl>            <dbl>        <dbl>
 1 Adams Coun… IL              7633          22732            31770        0.240
 2 Alexander … IL              1262           1496             2820        0.448
 3 Bond County IL              2066           4884             7462        0.277
 4 Boone Coun… IL              8952          12261            22604        0.396
 5 Brown Coun… IL               475           1776             2336        0.203
 6 Bureau Cou… IL              6010           9264            16303        0.369
 7 Calhoun Co… IL               739           1719             2556        0.289
 8 Carroll Co… IL              2437           4428             7354        0.331
 9 Cass County IL              1617           3216             5054        0.320
10 Champaign … IL             49694          33235            89196        0.557
# ℹ 3,131 more rows
# ℹ 11 more variables: per_gop_2016 <dbl>, diff_2016 <dbl>, winner <chr>,
#   partywinner16 <chr>, pop <dbl>, female <dbl>, white <dbl>, black <dbl>,
#   travel_time <dbl>, land_area <dbl>, hh_income <dbl>

If the column that both data sets have in common has the same name, there’s no need to provide it. If this is not the case, you need to provide it in a character vector:

election_data16 |> 
  rename(county = name) |> 
  right_join(demographic_data, by = join_by("county" == "name"))

Warning in right_join(rename(election_data16, county = name), demographic_data, : Detected an unexpected many-to-many relationship between `x` and `y`.
ℹ Row 1 of `x` matches multiple rows in `y`.
ℹ Row 1 of `y` matches multiple rows in `x`.
ℹ If a many-to-many relationship is expected, set `relationship =
  "many-to-many"` to silence this warning.

# A tibble: 10,348 × 18
   county    state.x votes_dem_2016 votes_gop_2016 total_votes_2016 per_dem_2016
   <chr>     <chr>            <dbl>          <dbl>            <dbl>        <dbl>
 1 Adams Co… IL                7633          22732            31770        0.240
 2 Adams Co… IL                7633          22732            31770        0.240
 3 Adams Co… IL                7633          22732            31770        0.240
 4 Adams Co… IL                7633          22732            31770        0.240
 5 Adams Co… IL                7633          22732            31770        0.240
 6 Adams Co… IL                7633          22732            31770        0.240
 7 Adams Co… IL                7633          22732            31770        0.240
 8 Adams Co… IL                7633          22732            31770        0.240
 9 Adams Co… IL                7633          22732            31770        0.240
10 Alexande… IL                1262           1496             2820        0.448
# ℹ 10,338 more rows
# ℹ 12 more variables: per_gop_2016 <dbl>, diff_2016 <dbl>, winner <chr>,
#   partywinner16 <chr>, state.y <chr>, pop <dbl>, female <dbl>, white <dbl>,
#   black <dbl>, travel_time <dbl>, land_area <dbl>, hh_income <dbl>

Here, the problem is that the same counties exist in different states. Therefore, all combinations are returned. Hence, I need to specify two arguments: the county’s name and state.

election_data16 |> 
  rename(county = name) |> 
  right_join(demographic_data, by = join_by("county" == "name", "state"))

# A tibble: 2,000 × 17
   county      state votes_dem_2016 votes_gop_2016 total_votes_2016 per_dem_2016
   <chr>       <chr>          <dbl>          <dbl>            <dbl>        <dbl>
 1 Adams Coun… IL              7633          22732            31770        0.240
 2 Alexander … IL              1262           1496             2820        0.448
 3 Bond County IL              2066           4884             7462        0.277
 4 Boone Coun… IL              8952          12261            22604        0.396
 5 Brown Coun… IL               475           1776             2336        0.203
 6 Bureau Cou… IL              6010           9264            16303        0.369
 7 Calhoun Co… IL               739           1719             2556        0.289
 8 Carroll Co… IL              2437           4428             7354        0.331
 9 Cass County IL              1617           3216             5054        0.320
10 Champaign … IL             49694          33235            89196        0.557
# ℹ 1,990 more rows
# ℹ 11 more variables: per_gop_2016 <dbl>, diff_2016 <dbl>, winner <chr>,
#   partywinner16 <chr>, pop <dbl>, female <dbl>, white <dbl>, black <dbl>,
#   travel_time <dbl>, land_area <dbl>, hh_income <dbl>

Left joins return all rows which are in x. If a column is in x but not in y, an NA will be included at this position. Right joins work vice versa and return all rows which are in y.

inner_join()

An inner_join() returns all rows which are in x and y.

election_data16 |> 
  inner_join(demographic_data)

Joining with `by = join_by(name, state)`

# A tibble: 2,000 × 17
   name        state votes_dem_2016 votes_gop_2016 total_votes_2016 per_dem_2016
   <chr>       <chr>          <dbl>          <dbl>            <dbl>        <dbl>
 1 Adams Coun… IL              7633          22732            31770        0.240
 2 Alexander … IL              1262           1496             2820        0.448
 3 Bond County IL              2066           4884             7462        0.277
 4 Boone Coun… IL              8952          12261            22604        0.396
 5 Brown Coun… IL               475           1776             2336        0.203
 6 Bureau Cou… IL              6010           9264            16303        0.369
 7 Calhoun Co… IL               739           1719             2556        0.289
 8 Carroll Co… IL              2437           4428             7354        0.331
 9 Cass County IL              1617           3216             5054        0.320
10 Champaign … IL             49694          33235            89196        0.557
# ℹ 1,990 more rows
# ℹ 11 more variables: per_gop_2016 <dbl>, diff_2016 <dbl>, winner <chr>,
#   partywinner16 <chr>, pop <dbl>, female <dbl>, white <dbl>, black <dbl>,
#   travel_time <dbl>, land_area <dbl>, hh_income <dbl>

full_join()

A full_join() returns rows and columns from both x and y.

election_data16 |> 
  full_join(demographic_data)

Joining with `by = join_by(name, state)`

# A tibble: 3,141 × 17
   name        state votes_dem_2016 votes_gop_2016 total_votes_2016 per_dem_2016
   <chr>       <chr>          <dbl>          <dbl>            <dbl>        <dbl>
 1 Adams Coun… IL              7633          22732            31770        0.240
 2 Alexander … IL              1262           1496             2820        0.448
 3 Bond County IL              2066           4884             7462        0.277
 4 Boone Coun… IL              8952          12261            22604        0.396
 5 Brown Coun… IL               475           1776             2336        0.203
 6 Bureau Cou… IL              6010           9264            16303        0.369
 7 Calhoun Co… IL               739           1719             2556        0.289
 8 Carroll Co… IL              2437           4428             7354        0.331
 9 Cass County IL              1617           3216             5054        0.320
10 Champaign … IL             49694          33235            89196        0.557
# ℹ 3,131 more rows
# ℹ 11 more variables: per_gop_2016 <dbl>, diff_2016 <dbl>, winner <chr>,
#   partywinner16 <chr>, pop <dbl>, female <dbl>, white <dbl>, black <dbl>,
#   travel_time <dbl>, land_area <dbl>, hh_income <dbl>

semi_join()

Filtering joins only keep the cases from x, no data set is added.

The semi_join() returns all rows from x with matching values in y. You can compare it to a right_join() but without adding the columns of y.

election_data16 |> 
  semi_join(demographic_data)

Joining with `by = join_by(name, state)`

# A tibble: 2,000 × 10
   name        state votes_dem_2016 votes_gop_2016 total_votes_2016 per_dem_2016
   <chr>       <chr>          <dbl>          <dbl>            <dbl>        <dbl>
 1 Adams Coun… IL              7633          22732            31770        0.240
 2 Alexander … IL              1262           1496             2820        0.448
 3 Bond County IL              2066           4884             7462        0.277
 4 Boone Coun… IL              8952          12261            22604        0.396
 5 Brown Coun… IL               475           1776             2336        0.203
 6 Bureau Cou… IL              6010           9264            16303        0.369
 7 Calhoun Co… IL               739           1719             2556        0.289
 8 Carroll Co… IL              2437           4428             7354        0.331
 9 Cass County IL              1617           3216             5054        0.320
10 Champaign … IL             49694          33235            89196        0.557
# ℹ 1,990 more rows
# ℹ 4 more variables: per_gop_2016 <dbl>, diff_2016 <dbl>, winner <chr>,
#   partywinner16 <chr>
…
