Chapter 6: stringr and RegExes – Toolbox CSS
…
imdb_raw <- read_csv("https://www.dropbox.com/s/81o3zzdkw737vt0/imdb2006-2016.csv?dl=1")

Rows: 1000 Columns: 12
── Column specification ────────────────────────────────────────────────────────
Delimiter: ","
chr (5): Title, Genre, Description, Director, Actors
dbl (7): Rank, Year, Runtime (Minutes), Rating, Votes, Revenue (Millions), M...

ℹ Use `spec()` to retrieve the full column specification for this data.
ℹ Specify the column types or set `show_col_types = FALSE` to quiet this message.

imdb_raw |> 
  filter(str_detect(Genre, "Action"))

# A tibble: 303 × 12
    Rank Title       Genre Description Director Actors  Year `Runtime (Minutes)`
   <dbl> <chr>       <chr> <chr>       <chr>    <chr>  <dbl>               <dbl>
 1     1 Guardians … Acti… A group of… James G… Chris…  2014                 121
 2     5 Suicide Sq… Acti… A secret g… David A… Will …  2016                 123
 3     6 The Great … Acti… European m… Yimou Z… Matt …  2016                 103
 4     9 The Lost C… Acti… A true-lif… James G… Charl…  2016                 141
 5    13 Rogue One   Acti… The Rebel … Gareth … Felic…  2016                 133
 6    15 Colossal    Acti… Gloria is … Nacho V… Anne …  2016                 109
 7    18 Jason Bour… Acti… The CIA's … Paul Gr… Matt …  2016                 123
 8    25 Independen… Acti… Two decade… Roland … Liam …  2016                 120
 9    27 Bahubali: … Acti… In ancient… S.S. Ra… Prabh…  2015                 159
10    30 Assassin's… Acti… When Callu… Justin … Micha…  2016                 115
# ℹ 293 more rows
# ℹ 4 more variables: Rating <dbl>, Votes <dbl>, `Revenue (Millions)` <dbl>,
#   Metascore <dbl>
…
This outputs a list containing the different singular words/special characters. This doesn’t make sense in this case. Here, however, the structure of the string is always roughly the same: “\[manufacturer\]\[ \]\[model description\]”. Moreover, the manufacturer is only one word. Hence, the task can be fixed by splitting the string after the first word, which should indicate the manufacturer. This can be accomplished using str_split_fixed(). Fixed means that the number of splits is predefined. This returns a matrix that can easily become a tibble.

str_split_fixed(manufacturer_model, "(?<=\\w)\\b", n = 2) |> 
  as_tibble() |> 
  rename(manufacturer = V1,
         model = V2) |> 
  mutate(model = str_squish(model))

Warning: The `x` argument of `as_tibble.matrix()` must have unique column names if
`.name_repair` is omitted as of tibble 2.0.0.
ℹ Using compatibility `.name_repair`.

# A tibble: 32 × 2
   manufacturer model       
   <chr>        <chr>       
 1 Mazda        "RX4"       
 2 Mazda        "RX4 Wag"   
 3 Datsun       "710"       
 4 Hornet       "4 Drive"   
 5 Hornet       "Sportabout"
 6 Valiant      ""          
 7 Duster       "360"       
 8 Merc         "240D"      
 9 Merc         "230"       
10 Merc         "280"       
# ℹ 22 more rows
…
