Chapter 11: Supervised Classification – Toolbox CSS
…
In the initial call, the formula needs to be provided. In our example, we want to predict the sentiment (“positive” or “negative”) using the text in the review. Then, different steps for pre-processing are added. Similar to what you have learned in the prior chapters containing measures based on the bag of words assumption, the first step is usually tokenization, achieved through step_tokenize(). In the end, the features need to be quantified, either through step_tf(), for raw term frequencies, or step_tfidf(), for TF-IDF. In between, various pre-processing steps such as word normalization (i.e., stemming or lemmatization), and removal of rare or common words Hence, a recipe for a very basic model just using raw frequencies and the 1,000 most common words would look as follows:

imdb_basic_recipe <- recipe(sentiment ~ text, data = imdb_train) |> 
  step_tokenize(text) |> # tokenize text
  step_tokenfilter(text, max_tokens = 1000) |> # only retain 1000 most common words
  # additional pre-processing steps can be added, see next chapter
  step_tfidf(text) # final step: add term frequencies

In case you want to know what the data set for the classification task looks like, you can prep() and finally bake() the recipe. Note that we need to specify the data set we want to pre-process in the recipe’s manner. In our case, we want to perform the operations on the data specified in the basic_recipe and, hence, need to specify new_data = NULL.

imdb_basic_recipe |> 
  prep() |> 
  bake(new_data = NULL)

# A tibble: 5,000 × 1,001
   sentiment tfidf_text_1 tfidf_text_10 tfidf_text_2 tfidf_text_20 tfidf_text_3
   <fct>            <dbl>         <dbl>        <dbl>         <dbl>        <dbl>
 1 negative       0             0             0                  0      0.0119 
 2 negative       0.0270        0             0.0240             0      0      
 3 negative       0             0             0                  0      0      
 4 negative       0             0.0178        0.0203             0      0      
 5 negative       0             0             0                  0      0      
 6 negative       0             0             0                  0      0      
 7 negative       0.0215        0             0.0192             0      0      
 8 negative       0.00812       0.00637       0                  0      0.00829
 9 negative       0             0             0                  0      0      
10 negative       0             0             0                  0      0      
# ℹ 4,990 more rows
# ℹ 995 more variables: tfidf_text_4 <dbl>, tfidf_text_5 <dbl>,
#   tfidf_text_7 <dbl>, tfidf_text_8 <dbl>, tfidf_text_80 <dbl>,
#   tfidf_text_9 <dbl>, tfidf_text_a <dbl>, tfidf_text_able <dbl>,
#   tfidf_text_about <dbl>, tfidf_text_above <dbl>,
#   tfidf_text_absolutely <dbl>, tfidf_text_across <dbl>, tfidf_text_act <dbl>,
#   tfidf_text_acted <dbl>, tfidf_text_acting <dbl>, tfidf_text_action <dbl>, …
…
