Chapter 12: Unsupervised Machine Learning – Toolbox CSS
…
Document-topic probabilities

Another thing to assess is document-topic probabilities gamma: which document belongs to which topic. By doing so, you can choose the documents that have the highest probability of belonging to a topic and then read these specifically. This might give you a better understanding of what the different topics might imply.

This shows you the proportion of words in the document which were drawn from the specific topics. In 1900, for instance, many words were drawn from the 13th topic.

sotu_lda_k15_document |> 
  group_by(document) |> 
  slice_max(gamma, n = 1) |> 
  mutate(gamma = round(gamma, 3))

# A tibble: 99 × 3
# Groups:   document [99]
   document topic gamma
   <chr>    <int> <dbl>
 1 1900        13 1    
 2 1901         2 1    
 3 1902         2 0.963
 4 1903         8 0.811
 5 1904         8 0.884
 6 1905         8 1    
 7 1906         8 0.62 
 8 1907         8 0.364
 9 1908        13 0.541
10 1909        11 1    
# ℹ 89 more rows
…
