Chapter 19: Agent-based Modeling – Empirically Calibrated – Toolbox CSS
…
  report <- report %>%
    mutate(across(everything(), ~ replace_na(., 0))) %>% 
    relocate(step, share_global)
  
  share_cols <- names(report)[!names(report) %in% c("share_global", "step")]  # Exclude original columns
  new_names <- paste0("s_", seq_along(share_cols))              # Generate s_1, s_2, ...
  names(report)[!names(report) %in% c("share_global", "step")] <- new_names
  
  return(report)
}

report_generate(sim_data)

# A tibble: 25 × 9
    step share_global   s_1   s_2   s_3   s_4   s_5   s_6   s_7
   <int>        <dbl> <int> <int> <int> <int> <int> <int> <int>
 1     1     0.000986   168     1     0     0     0     0     0
 2     2     0.000986   168     1     0     0     0     0     0
 3     3     0.00197    167     2     0     0     0     0     0
 4     4     0.00197    167     2     0     0     0     0     0
 5     5     0.00296    167     1     1     0     0     0     0
 6     6     0.00296    167     1     1     0     0     0     0
 7     7     0.00394    166     2     1     0     0     0     0
 8     8     0.00394    166     2     1     0     0     0     0
 9     9     0.00394    166     2     1     0     0     0     0
10    10     0.00493    166     2     0     1     0     0     0
# ℹ 15 more rows
…
