Chapter 9: Text Preprocessing and Featurization – Toolbox CSS
…
To decrease the complexity of the vocabulary even further, we can reduce the tokens to their stem using the SnowballC package and its function wordStem():

sotu_20cent_tokenized_nostopwords_nonumbers_stemmed <- sotu_20cent_tokenized_nostopwords_nonumbers |> 
  mutate(token_stemmed = wordStem(token, language = "en"))

#SnowballC::getStemLanguages() # if you want to know the abbreviations for other languages as well

Maybe I should also remove insignificant words, i.e., ones that appear less than 0.05 percent of the time.

n_rows <- nrow(sotu_20cent_tokenized_nostopwords_nonumbers_stemmed)
sotu_20cent_tokenized_nostopwords_nonumbers_stemmed |> 
  group_by(token_stemmed) |> 
  filter(n() > n_rows/2000)

# A tibble: 285,203 × 8
# Groups:   token_stemmed [490]
       X president         year years_active party sotu_type token token_stemmed
   <int> <chr>            <int> <chr>        <chr> <chr>     <chr> <chr>        
 1   112 William McKinley  1900 1897-1901    Repu… written   sena… senat        
 2   112 William McKinley  1900 1897-1901    Repu… written   house hous         
 3   112 William McKinley  1900 1897-1901    Repu… written   repr… repres       
 4   112 William McKinley  1900 1897-1901    Repu… written   old   old          
 5   112 William McKinley  1900 1897-1901    Repu… written   inco… incom        
 6   112 William McKinley  1900 1897-1901    Repu… written   new   new          
 7   112 William McKinley  1900 1897-1901    Repu… written   cent… centuri      
 8   112 William McKinley  1900 1897-1901    Repu… written   begin begin        
 9   112 William McKinley  1900 1897-1901    Repu… written   last  last         
10   112 William McKinley  1900 1897-1901    Repu… written   sess… session      
# ℹ 285,193 more rows
…
